{
  "prepare_queue": {
    "installed": [],
    "uninstalled": []
  },
  "config_munge": {
    "files": {}
  },
  "installed_plugins": {
    "com.paypal.cordova.mobilesdk": {
      "PACKAGE_NAME": "com.wpexpertsweb.carwashmi"
    },
    "cordova-plugin-camera": {
      "PACKAGE_NAME": "com.wpexpertsweb.carwashmi"
    },
    "cordova-plugin-compat": {
      "PACKAGE_NAME": "com.wpexpertsweb.carwashmi"
    },
    "cordova-plugin-device": {
      "PACKAGE_NAME": "com.wpexpertsweb.carwashmi"
    },
    "cordova-plugin-dialogs": {
      "PACKAGE_NAME": "com.wpexpertsweb.carwashmi"
    },
    "cordova-plugin-fcm": {
      "PACKAGE_NAME": "com.wpexpertsweb.carwashmi"
    },
    "cordova-plugin-ionic-keyboard": {
      "PACKAGE_NAME": "com.wpexpertsweb.carwashmi"
    },
    "cordova-plugin-ionic-webview": {
      "PACKAGE_NAME": "com.wpexpertsweb.carwashmi"
    },
    "cordova-plugin-request-location-accuracy": {
      "PACKAGE_NAME": "com.wpexpertsweb.carwashmi"
    },
    "cordova-plugin-splashscreen": {
      "PACKAGE_NAME": "com.wpexpertsweb.carwashmi"
    },
    "cordova-plugin-whitelist": {
      "PACKAGE_NAME": "com.wpexpertsweb.carwashmi"
    },
    "cordova-sms-plugin": {
      "PACKAGE_NAME": "com.wpexpertsweb.carwashmi"
    },
    "cordova-plugin-actionsheet": {
      "PACKAGE_NAME": "com.wpexpertsweb.carwashmi"
    },
    "cordova-plugin-geolocation": {
      "PACKAGE_NAME": "com.wpexpertsweb.carwashmi"
    },
    "cordova-plugin-file": {
      "PACKAGE_NAME": "com.wpexpertsweb.carwashmi"
    },
    "cordova-plugin-filepath": {
      "PACKAGE_NAME": "com.wpexpertsweb.carwashmi"
    },
    "cordova-plugin-datepicker": {
      "PACKAGE_NAME": "com.wpexpertsweb.carwashmi"
    },
    "cordova-plugin-android-permissions": {
      "PACKAGE_NAME": "com.wpexpertsweb.carwashmi"
    },
    "cordova-plugin-app-event": {
      "PACKAGE_NAME": "com.wpexpertsweb.carwashmi"
    },
    "mx.ferreyra.callnumber": {
      "PACKAGE_NAME": "com.wpexpertsweb.carwashmi"
    },
    "cordova-plugin-call-number": {
      "PACKAGE_NAME": "com.wpexpertsweb.carwashmi"
    },
    "cordova-plugin-file-transfer": {
      "PACKAGE_NAME": "com.wpexpertsweb.carwashmi"
    },
    "de.appplant.cordova.plugin.local-notification": {
      "PACKAGE_NAME": "com.wpexpertsweb.carwashmi"
    }
  },
  "dependent_plugins": {
    "card.io.cordova.mobilesdk": {
      "PACKAGE_NAME": "com.wpexpertsweb.carwashmi"
    }
  }
}